{
  "extensionName": {
    "message": "Allow HTML Temp"
  },
  "extensionDescription": {
    "message": "Allow temporarily HTML in a selected message"
  },

  "button_label": {
    "message": "Show HTML"
  },
  "button_tooltip": {
    "message": "Temporarily display text or HTML for this message"
  },
  "button_label_html": {
    "message": "Show HTML"
  },
  "button_label_sanitized": {
    "message": "Show HTML"
  },
  "button_label_plaintext": {
    "message": "Plain Text"
  },

  "optionPageTitle_label": {
    "message": "Allow HTML Temp - Preferences"
  },
  "optionGeneralDescription_label": {
    "message": "To prevent malicious code execution (e.g. \"Locky\" and \"Tesla\"), HTML and JavaScript for email should be deactivated or restricted and email attachments should not be displayed as inline. JavaScript is always restricted by Thunderbird anyway."
  },

  "optionHTML_label": {
    "message": "HTML in email"
  },
  "optionHTMLDescription_label": {
    "message": "A restricted option should be chosen here for default."
  },
  "optionHTMLDescriptionWarning_label": {
    "message": "This is one of Thunderbirds own options, which you can find in menu \"View\" → \"Message Body As\". If you uninstall this Add-on, the option will remain as chosen, but you can also change this option in Thunderbird without this Add-on.",
    "description": "Please, use the original terms, which are used in Thunderbird menus and options dialog in your language"
  },
  "optionAppHTML_label": {
    "message": "Default setting:"
  },
  "optionButtonHTML_label": {
    "message": "Click on \"Show HTML\":"
  },
  "optionNotRecommended_label": {
    "message": "(not recommended)"
  },
  "optionOriginalHTML_label": {
    "message": "Original HTML"
  },
  "optionSanitizedHTML_label": {
    "message": "Simple HTML"
  },
  "optionPlaintext_label": {
    "message": "Plain Text"
  },
  "optionAllBodyParts_label": {
    "message": "All Body Parts"
  },

  "optionAdditionalOptions_label": {
    "message": "Advanced options"
  },
  "optionAllwaysVersusClickDescription_label": {
    "message": "Additional, optional content can be activated when displaying original HTML. You can activate these additional options in general for original HTML mode or only for the temporary \"Show HTML\" feature."
  },
  "optionRemoteContent_label": {
    "message": "Remote content (images, stylesheets ...)"
  },
  "optionAllwaysRemoteContent_label": {
    "message": "Allow remote content in general (not recommended)"
  },
  "optionAllwaysRemoteContentWarning_label": {
    "message": "This is one of Thunderbirds own options, which you can find in Thunderbirds Preferences under \"Privacy & Security\" → \"Allow remote content in messages\". If you uninstall this Add-on, the option will remain as chosen, but you can also change this option in Thunderbird without this Add-on.",
    "description": "Please, use the original terms, which are used in Thunderbird menus and options dialog in your language"
  },
  "optionTempRemoteContent_label": {
    "message": "Temporarily allow remote content for the selected message by click on \"Show HTML\""
  },
  "optionAttachments_label": {
    "message": "Attachments"
  },
  "optionAttachmentsAllwaysInline_label": {
      "message": "Always show attachments inline (not recommended)"
  },
  "optionAttachmentsTempInlineWarning_label": {
    "message": "This is one of Thunderbirds own options, which you can find in menu \"View\" → \"Display Attachments Inline\". If you uninstall this Add-on, the option will remain as chosen, but you can also change this option in Thunderbird without this Add-on.",
    "description": "Please, use the original terms, which are used in Thunderbird menus and options dialog in your language"
  },
  "optionAttachmentsTempInline_label": {
      "message": "Temporarily show attachments inline by click on \"Show HTML\""
  },

  "optionCommandKeyHeader_label": {
    "message": "Shortcut"
  },
  "optionCommandKeyDescription_label": {
    "message": "The buttons function specified here in the options can also be executed using a shortcut. You can customize the shortcut if needed. The resulting command key is then given as a string containing a set of 2 or 3 key values, separated by \"+\". For example, \"Ctrl+Alt+F5\" (3 key values - this is the default shortcut) or \"Ctrl+F5\" (2 key values).",
    "description": "Do not translate the Keys in the line above. The modifier keys like Ctrl and Alt must remain as given, because of the technical character of the text."
  },
  "optionCommandKeyRulesText_label": {
    "message": "The rules described on MDN have to be considered."
  },
  "optionCommandKey_label": {
    "message": "Shortcut for \"Show HTML\":"
  },
  "optionCommandKeyWarning_label": {
    "message": "Your chosen commandkey isn't valid. Therefore the default \"Ctrl+Alt+F5\" will be used.",
    "description": "Do not translate the Keys in the line above. The modifier keys like Ctrl and Alt must remain as given, because of the technical character of the text."
  },

  "optionDebugHeader_label": {
    "message": "Debug mode"
  },
  "optionDebugDescription_label": {
    "message": "Debug information will be logged in the error console."
  },
  "optionDebug_label": {
    "message": "Activate debug mode"
  },

  "optionResetAllOptionsHeader_label": {
    "message": "Reset all options"
  },
  "optionResetAllOptionsDescription_label": {
    "message": "Click to reset all options to their default values."
  },
  "optionResetAllOptionsDescription2_label": {
    "message": "Click to reset all options to Thunderbird default or to recommended values."
  },
  "optionButtonResetToDefault_label": {
    "message": "Thunderbird default"
  },
  "optionButtonResetToRecommended_label": {
    "message": "Recommended"
  },
  "optionButtonReset_label": {
    "message": "Reset"
  },

  "uninstallResetDialog_label": {
    "message": "Allow HTML Temp will be disabled or uninstalled.\n\nDo you want to keep or reset Thunderbird settings for \"Message Body As\" (HTML Mode), \"Display Attachments Inline\" and \"Allow remote content in messages\"?",
    "description": "Please, use the original terms, which are used in Thunderbird menus and options dialog in your language"
  },
  "uninstallResetToDefault_label": {
    "message": "Reset"
  },
  "uninstallResetNotToDefault_label": {
    "message": "Keep Settings"
  }

}